{
    "type": "service_account",
    "project_id": "mapchat-cbc40",
    "private_key_id": "2a36de52c1fcf7326c17f0f6e2740085e3ea228d",
    "private_key": "-----BEGIN PRIVATE KEY-----\nMIIEvgIBADANBgkqhkiG9w0BAQEFAASCBKgwggSkAgEAAoIBAQCq6aSd5odOg1b3\nHhEON0I7NLfXMkLuppJfsmDEx7x+1AXN6FESlkwXcaWCD9L/aEf8DaL9jNZgLcI7\nQU7QFI+AAdDDmTJ+L/okMCkl5Yc98I1EsYB5uO00Ta7xrMFZAWu5Ut6bmzog7QjN\nbZKV3YX4e9ctcaBYhl1nreBGMGXBsUbLg00zzOSb1i+6ns29gRly2fvY/AaLWRul\nQ/1MeYc9KS+6WlsFpoBKP8mmfkEDYqOGnxKi3ElLk8rO58AInjLoJmLI0+E+O7UX\nujRivs45k57fZA1a6+F+SQdgXm6vprlUW9CCtbEJT4/4pa39bysaom6Gg6o8eWEV\nguPJyfEtAgMBAAECggEAAkrV8WQ5Jl1umivmEKm/Eqo3WQSMj0Teq7fpwlnndlAD\nr+pQxA4OATZ+AMuTiedtJ71LFVmBOpMCiubqVrIf5pifoy/31GdyVG/s7Vwxvyvt\nySEUVw2a6Nut4AHwKfBx8G9jGvUvB2gGeTLiB26MMHQAw9RFUUqkEBLt8iMOClX/\nsRoDp4V1v71pfolPcSWXEyolORd7ycoIJsXzbvzgpoqC7kyZnhtiMgZ0pEKYKzt5\nQvg8hBc5/TtLkvS0gICcUx3DoRSwq1Kxa40hm2mYNx1Y4A2SYqOFbesxTPhzimTM\nePdKKV072PYIf95B32SwdCNqEUKS2zYqM2vsEi+aYQKBgQDxIoQ3ytu0chjiS+vX\n6LGktIhgix9uNAog7A+hiGqyj/es9RL2pnya5OhG098VE1H/CoMWB7PaKfEz4+Ae\nEcfHtF8DNX9pPhbhPQTGVP0tHKjTBf8cRtcVmumtLg/a6tvnsOQSA1F8PBfRp+eq\nkcMYsAQerQD8LcjYhALtNozmZQKBgQC1culPyw6GT9hR0OdjyXFSKEQYwnF0Jdmg\nfu08VGwiBkQDQzsvKP4fO8vQFYnJQgHvyW8j1AZV84lO6J5clrIQajb+DiPniqsp\n/X82j0yoxRcRVsnf1X3qDIwjr+dUUtGObj11f0a6tx5FesBrNCxDGpDa3bE+kzKY\n/42CDDKvKQKBgQC7Yvhepw0/V99QlHFNku3hsc29QMAHEvfAB9JJ1EoeQ1TUmorH\nFDAG6tY6nFFi/mWdDZ061HeGlUt06KP0mhqnbdrcEonVzkNXe+Sm/8rTcM8dVi6e\n2coxZvYq932owRRtI4DJIr0DD2vvKE0WtzlmiPpaoFUAo8/NuiDQGLE8JQKBgHJ8\ngde18IEwifX9kLI2nUjQXT8eGMXHSAxrabaiMeQ5/dntJr+35rfAW/X8UQbqnhw1\nBeoeUq0Sz7U5MwqKjumqiu47782dgigpaYX8XssyKD7petC/fQYbSqUNzTE4XD65\nMhAb8X3IItKGBDjgH3lrnrBqJvarm8ZLoHbIyYYZAoGBAO8PQIpxLrBJzvjicagy\nEz3n2FuwmoCU3JFqM0t0acdbXEuvzYNI6RM1eYIcrRUXPiCC4pC4zLP9HVqyy+VQ\navoNeW5LEt1ggJhDPQOBQNpP/9vloTW98yh+nvNktxCR1zjCYM6HLxuOYf34Cnqf\n1KglfcTXZj5qx0YuycZOPePX\n-----END PRIVATE KEY-----\n",
    "client_email": "firebase-adminsdk-8tdex@mapchat-cbc40.iam.gserviceaccount.com",
    "client_id": "112516114011694479615",
    "auth_uri": "https://accounts.google.com/o/oauth2/auth",
    "token_uri": "https://oauth2.googleapis.com/token",
    "auth_provider_x509_cert_url": "https://www.googleapis.com/oauth2/v1/certs",
    "client_x509_cert_url": "https://www.googleapis.com/robot/v1/metadata/x509/firebase-adminsdk-8tdex%40mapchat-cbc40.iam.gserviceaccount.com"
}